[
  {
    "ResourceTypeName": "AWS::EC2::Instance",
    "ResourceTypeDescription": "A Virtual Machine",
    "ResourceTypeTranslatorClass": "CAWSEC2InstanceTranslator",
    "Properties": {
      "ImageId": {
        "AWSPropertyName": "ImageId",
        "AzurePropertyName": "ImageId",
        "TranslatorClass": "CDefaultPropertyTranslator"
      },
      "InstanceType": {
        "AWSPropertyName": "InstanceType",
        "AzurePropertyName": "InstanceType",
        "TranslatorClass": "CDefaultPropertyTranslator"
      },
      "KeyName": {
        "AWSPropertyName": "KeyName",
        "AzurePropertyName": "KeyName",
        "TranslatorClass": "CDefaultPropertyTranslator"
      },
      "SecurityGroup": {
        "AWSPropertyName": "SecurityGroup",
        "AzurePropertyName": "SecurityGroup",
        "TranslatorClass": "CDefaultPropertyTranslator"
      },
      "UserData": {
        "AWSPropertyName": "UserData",
        "AzurePropertyName": "UserData",
        "TranslatorClass": "CDefaultPropertyTranslator"
      }
    }
  },
  {
    "ResourceTypeName": "AWS::SQS::Queue",
    "ResourceTypeDescription": "A Queue",
    "ResourceTypeTranslatorClass": "CQueueTranslator",
    "Properties": {
      "QueueName": {
        "AWSPropertyName": "QueueName",
        "AzurePropertyName": "QueueName",
        "TranslatorClass": "CDefaultPropertyTranslator"
      }
    }
  },
  {
    "ResourceTypeName": "AWS::SNS::Topic",
    "ResourceTypeDescription": "A Topic",
    "ResourceTypeTranslatorClass": "CTopicTranslator",
    "Properties": {
      "TopicName": {
        "AWSPropertyName": "TopicName",
        "AzurePropertyName": "TopicName",
        "TranslatorClass": "CDefaultPropertyTranslator"
      }
    }
  }
]